%YAML 1.1
%TAG !u! tag:unity3d.com,2011:
--- !u!114 &11400000
MonoBehaviour:
  m_ObjectHideFlags: 0
  m_CorrespondingSourceObject: {fileID: 0}
  m_PrefabInstance: {fileID: 0}
  m_PrefabAsset: {fileID: 0}
  m_GameObject: {fileID: 0}
  m_Enabled: 1
  m_EditorHideFlags: 0
  m_Script: {fileID: 11500000, guid: 4eccbe91b1fdc1f4ead7e77db5e4ead1, type: 3}
  m_Name: FuelUpgrade
  m_EditorClassIdentifier: 
  _settings: {fileID: 11400000, guid: 14f6f958cd9f9e9468a144e522865875, type: 2}
  UpgradeEnergyValue: 20
